Z=1 Y=0 e X=0  => Sentido oposto a gravidade é considerado como eixo =-1. Exemplo z+ e gravidade em sentido oposto é igual a z=-1

Valores dos vetores:
Vetor x = 0.84 0.84 0.84 0.84 0.84 0.84 0.85 0.85 0.85 0.85 0.85 0.85 0.85 0.85 0.85 0.85 0.85 0.85 0.85 0.84 0.84 0.84 0.85 0.85 0.85 0.85 0.85 0.84 0.84 0.84 0.84 0.84 0.84 0.84 0.84 0.84 0.84 0.84 0.84 0.84 0.84 0.84 0.85 0.85 0.84 0.84 0.84 0.84 0.84 0.84 0.84 0.84 0.84 0.84 0.84 0.84 0.84 0.84 0.85 0.84 0.85 0.84 0.84 0.84 0.84 0.84 0.84 0.84 0.84 0.85 0.85 0.85 0.85 0.84 0.84 0.84 0.85 0.84 0.84 0.84 0.84 0.84 0.84 0.84 0.84 0.84 0.84 0.85 0.84 0.84 0.84 0.84 0.84 0.84 0.84 0.84 0.85 0.85 0.84 0.84 
Vetor y = 0.01 0.01 0.01 0.01 0.02 0.02 0.02 0.02 0.02 0.02 0.02 0.02 0.02 0.02 0.02 0.02 0.02 0.02 0.02 0.02 0.02 0.02 0.02 0.02 0.02 0.02 0.02 0.02 0.02 0.02 0.02 0.02 0.02 0.02 0.02 0.02 0.02 0.02 0.02 0.01 0.01 0.01 0.02 0.01 0.01 0.01 0.01 0.02 0.02 0.02 0.02 0.02 0.02 0.02 0.02 0.02 0.02 0.02 0.02 0.03 0.03 0.03 0.02 0.02 0.02 0.02 0.02 0.02 0.02 0.02 0.02 0.02 0.02 0.02 0.02 0.02 0.02 0.02 0.02 0.02 0.02 0.02 0.02 0.02 0.02 0.02 0.02 0.02 0.02 0.02 0.02 0.02 0.01 0.01 0.02 0.02 0.02 0.01 0.01 0.01 
Vetor z = -10.33 -10.33 -10.33 -10.33 -10.33 -10.34 -10.34 -10.34 -10.34 -10.35 -10.35 -10.34 -10.34 -10.34 -10.34 -10.34 -10.34 -10.34 -10.33 -10.33 -10.33 -10.34 -10.34 -10.34 -10.34 -10.34 -10.34 -10.34 -10.34 -10.33 -10.34 -10.33 -10.33 -10.33 -10.33 -10.33 -10.34 -10.34 -10.34 -10.34 -10.34 -10.34 -10.34 -10.34 -10.33 -10.34 -10.34 -10.34 -10.34 -10.34 -10.34 -10.34 -10.34 -10.35 -10.35 -10.35 -10.35 -10.35 -10.35 -10.36 -10.35 -10.35 -10.36 -10.35 -10.35 -10.36 -10.36 -10.35 -10.35 -10.35 -10.35 -10.35 -10.35 -10.35 -10.34 -10.34 -10.35 -10.34 -10.34 -10.33 -10.33 -10.33 -10.33 -10.33 -10.32 -10.32 -10.32 -10.31 -10.31 -10.32 -10.32 -10.32 -10.32 -10.32 -10.32 -10.33 -10.33 -10.33 -10.33 -10.33 
Valores dos vetores:
Vetor x = 0.85 0.85 0.85 0.85 0.85 0.85 0.85 0.85 0.85 0.85 0.85 0.85 0.85 0.85 0.85 0.86 0.85 0.85 0.85 0.85 0.85 0.85 0.85 0.85 0.84 0.85 0.85 0.84 0.84 0.84 0.85 0.85 0.85 0.85 0.85 0.85 0.85 0.85 0.85 0.84 0.84 0.84 0.84 0.84 0.84 0.84 0.84 0.84 0.84 0.84 0.84 0.84 0.84 0.85 0.85 0.85 0.85 0.84 0.84 0.84 0.84 0.84 0.84 0.84 0.84 0.85 0.85 0.85 0.85 0.85 0.85 0.85 0.85 0.85 0.85 0.85 0.85 0.85 0.86 0.86 0.86 0.86 0.85 0.85 0.85 0.85 0.85 0.85 0.85 0.85 0.85 0.85 0.85 0.85 0.85 0.85 0.85 0.84 0.84 0.84 
Vetor y = 0.01 0.01 0.01 0.01 0.01 0.01 0.02 0.02 0.02 0.02 0.02 0.02 0.02 0.02 0.02 0.02 0.02 0.02 0.02 0.02 0.02 0.02 0.02 0.02 0.02 0.02 0.02 0.02 0.02 0.02 0.03 0.02 0.02 0.02 0.02 0.02 0.02 0.02 0.02 0.02 0.02 0.02 0.02 0.02 0.02 0.02 0.02 0.02 0.02 0.02 0.02 0.02 0.02 0.02 0.02 0.02 0.01 0.02 0.02 0.02 0.02 0.02 0.02 0.02 0.02 0.02 0.02 0.02 0.02 0.02 0.02 0.02 0.02 0.03 0.03 0.03 0.03 0.03 0.03 0.02 0.02 0.02 0.03 0.03 0.03 0.03 0.03 0.03 0.03 0.03 0.03 0.03 0.03 0.02 0.02 0.02 0.02 0.02 0.03 0.03 
Vetor z = -10.34 -10.35 -10.35 -10.35 -10.34 -10.34 -10.34 -10.34 -10.34 -10.34 -10.34 -10.34 -10.34 -10.33 -10.33 -10.33 -10.33 -10.33 -10.33 -10.33 -10.33 -10.33 -10.33 -10.33 -10.33 -10.33 -10.34 -10.33 -10.33 -10.33 -10.33 -10.33 -10.34 -10.34 -10.33 -10.34 -10.34 -10.34 -10.34 -10.34 -10.34 -10.34 -10.34 -10.33 -10.33 -10.33 -10.33 -10.33 -10.33 -10.33 -10.33 -10.33 -10.33 -10.33 -10.33 -10.33 -10.34 -10.34 -10.33 -10.33 -10.33 -10.33 -10.33 -10.33 -10.33 -10.33 -10.33 -10.32 -10.33 -10.33 -10.33 -10.32 -10.33 -10.33 -10.33 -10.33 -10.34 -10.34 -10.34 -10.34 -10.34 -10.34 -10.34 -10.35 -10.35 -10.34 -10.35 -10.35 -10.35 -10.35 -10.35 -10.35 -10.35 -10.35 -10.35 -10.35 -10.35 -10.35 -10.34 -10.35 
Valores dos vetores:
Vetor x = 0.50 0.49 0.48 0.48 0.48 0.48 0.48 0.47 0.48 0.48 0.50 0.51 0.50 0.49 0.48 0.46 0.45 0.42 0.42 0.42 0.43 0.44 0.45 0.46 0.48 0.51 0.53 0.55 0.56 0.55 0.54 0.52 0.51 0.50 0.50 0.51 0.52 0.54 0.56 0.57 0.58 0.59 0.58 0.57 0.56 0.55 0.55 0.55 0.55 0.55 0.55 0.55 0.55 0.56 0.56 0.57 0.57 0.57 0.57 0.57 0.56 0.56 0.55 0.54 0.52 0.51 0.50 0.50 0.51 0.51 0.53 0.55 0.56 0.58 0.58 0.59 0.59 0.58 0.57 0.57 0.57 0.59 0.59 0.59 0.60 0.60 0.59 0.58 0.58 0.58 0.57 0.57 0.55 0.53 0.52 0.51 0.50 0.50 0.50 0.51 
Vetor y = 0.09 0.08 0.08 0.07 0.06 0.05 0.05 0.04 0.06 0.06 0.07 0.08 0.07 0.06 0.05 0.03 0.03 0.04 0.04 0.04 0.03 0.02 0.01 0.00 0.01 0.01 0.01 0.02 0.03 0.04 0.04 0.06 0.07 0.08 0.09 0.10 0.11 0.11 0.12 0.12 0.12 0.11 0.10 0.09 0.09 0.08 0.08 0.08 0.09 0.09 0.09 0.09 0.09 0.08 0.08 0.07 0.06 0.06 0.06 0.05 0.05 0.05 0.05 0.05 0.05 0.04 0.04 0.03 0.03 0.03 0.02 0.02 0.02 0.03 0.04 0.05 0.06 0.06 0.06 0.08 0.09 0.11 0.11 0.12 0.12 0.12 0.11 0.11 0.09 0.08 0.07 0.06 0.04 0.04 0.03 0.03 0.03 0.03 0.03 0.03 
Vetor z = -10.34 -10.35 -10.36 -10.36 -10.36 -10.36 -10.36 -10.35 -10.35 -10.35 -10.35 -10.35 -10.34 -10.34 -10.34 -10.33 -10.35 -10.37 -10.38 -10.38 -10.37 -10.36 -10.35 -10.35 -10.35 -10.35 -10.35 -10.34 -10.35 -10.34 -10.33 -10.34 -10.34 -10.35 -10.36 -10.35 -10.34 -10.33 -10.33 -10.33 -10.33 -10.33 -10.33 -10.34 -10.34 -10.34 -10.35 -10.35 -10.35 -10.35 -10.35 -10.35 -10.35 -10.35 -10.35 -10.35 -10.35 -10.35 -10.35 -10.34 -10.34 -10.35 -10.36 -10.36 -10.37 -10.37 -10.37 -10.36 -10.36 -10.36 -10.36 -10.35 -10.35 -10.35 -10.35 -10.34 -10.34 -10.33 -10.33 -10.33 -10.33 -10.34 -10.34 -10.34 -10.34 -10.35 -10.35 -10.35 -10.36 -10.36 -10.36 -10.37 -10.37 -10.37 -10.37 -10.36 -10.35 -10.35 -10.35 -10.35 

Z=-1 Y=0 e X=0
Valores dos vetores:
Vetor x = -0.38 -0.39 -0.39 -0.39 -0.39 -0.40 -0.39 -0.39 -0.39 -0.39 -0.39 -0.39 -0.39 -0.39 -0.39 -0.39 -0.39 -0.39 -0.39 -0.40 -0.40 -0.40 -0.40 -0.40 -0.39 -0.40 -0.40 -0.40 -0.40 -0.40 -0.40 -0.40 -0.40 -0.40 -0.40 -0.40 -0.40 -0.40 -0.40 -0.40 -0.40 -0.40 -0.39 -0.39 -0.39 -0.39 -0.39 -0.39 -0.39 -0.39 -0.39 -0.39 -0.38 -0.38 -0.39 -0.39 -0.39 -0.39 -0.39 -0.39 -0.39 -0.39 -0.39 -0.39 -0.39 -0.39 -0.39 -0.39 -0.39 -0.39 -0.39 -0.40 -0.40 -0.39 -0.39 -0.39 -0.39 -0.39 -0.39 -0.39 -0.39 -0.39 -0.39 -0.39 -0.39 -0.39 -0.39 -0.39 -0.40 -0.40 -0.39 -0.39 -0.39 -0.39 -0.39 -0.39 -0.39 -0.39 -0.39 -0.39 
Vetor y = -0.16 -0.16 -0.16 -0.16 -0.16 -0.16 -0.16 -0.16 -0.16 -0.16 -0.16 -0.16 -0.16 -0.16 -0.16 -0.16 -0.16 -0.16 -0.16 -0.16 -0.16 -0.16 -0.16 -0.16 -0.16 -0.16 -0.15 -0.15 -0.15 -0.15 -0.16 -0.16 -0.16 -0.16 -0.16 -0.16 -0.16 -0.16 -0.16 -0.16 -0.16 -0.16 -0.16 -0.16 -0.16 -0.16 -0.16 -0.16 -0.16 -0.16 -0.16 -0.16 -0.15 -0.15 -0.15 -0.15 -0.16 -0.16 -0.16 -0.16 -0.16 -0.16 -0.16 -0.16 -0.16 -0.16 -0.16 -0.16 -0.17 -0.16 -0.16 -0.16 -0.16 -0.16 -0.16 -0.16 -0.16 -0.16 -0.16 -0.16 -0.16 -0.16 -0.16 -0.16 -0.16 -0.16 -0.15 -0.15 -0.15 -0.15 -0.15 -0.15 -0.15 -0.15 -0.15 -0.15 -0.15 -0.15 -0.15 -0.15 
Vetor z = 9.60 9.61 9.61 9.61 9.61 9.61 9.61 9.61 9.61 9.60 9.60 9.60 9.60 9.60 9.60 9.60 9.60 9.61 9.61 9.61 9.61 9.61 9.61 9.61 9.60 9.60 9.60 9.60 9.60 9.60 9.60 9.61 9.61 9.61 9.61 9.60 9.60 9.61 9.61 9.60 9.60 9.59 9.59 9.59 9.60 9.60 9.60 9.60 9.60 9.60 9.59 9.59 9.59 9.59 9.59 9.60 9.60 9.60 9.60 9.59 9.59 9.59 9.59 9.59 9.59 9.59 9.59 9.60 9.59 9.59 9.58 9.58 9.58 9.58 9.58 9.58 9.58 9.58 9.58 9.57 9.57 9.57 9.58 9.58 9.58 9.59 9.58 9.59 9.59 9.58 9.58 9.58 9.58 9.58 9.58 9.58 9.58 9.58 9.59 9.59 
Valores dos vetores:
Vetor x = -0.40 -0.40 -0.40 -0.41 -0.41 -0.41 -0.41 -0.41 -0.40 -0.40 -0.40 -0.40 -0.40 -0.39 -0.39 -0.39 -0.39 -0.39 -0.39 -0.39 -0.40 -0.40 -0.40 -0.40 -0.40 -0.40 -0.40 -0.39 -0.39 -0.39 -0.39 -0.39 -0.39 -0.39 -0.39 -0.39 -0.39 -0.38 -0.38 -0.37 -0.37 -0.37 -0.37 -0.37 -0.37 -0.37 -0.36 -0.36 -0.36 -0.36 -0.36 -0.36 -0.36 -0.37 -0.37 -0.37 -0.37 -0.37 -0.38 -0.38 -0.38 -0.38 -0.38 -0.38 -0.39 -0.39 -0.39 -0.40 -0.40 -0.40 -0.41 -0.41 -0.40 -0.40 -0.40 -0.40 -0.40 -0.40 -0.40 -0.40 -0.40 -0.40 -0.40 -0.40 -0.40 -0.40 -0.40 -0.40 -0.40 -0.40 -0.40 -0.40 -0.40 -0.40 -0.40 -0.40 -0.40 -0.40 -0.39 -0.39 
Vetor y = -0.16 -0.16 -0.16 -0.16 -0.17 -0.17 -0.17 -0.17 -0.17 -0.16 -0.16 -0.16 -0.15 -0.16 -0.16 -0.16 -0.16 -0.16 -0.17 -0.17 -0.16 -0.16 -0.16 -0.16 -0.16 -0.16 -0.16 -0.16 -0.16 -0.16 -0.15 -0.15 -0.15 -0.16 -0.16 -0.16 -0.17 -0.17 -0.17 -0.16 -0.16 -0.15 -0.15 -0.15 -0.15 -0.15 -0.16 -0.16 -0.16 -0.15 -0.15 -0.14 -0.14 -0.13 -0.13 -0.14 -0.15 -0.16 -0.16 -0.17 -0.16 -0.16 -0.15 -0.15 -0.15 -0.15 -0.15 -0.16 -0.17 -0.17 -0.18 -0.18 -0.18 -0.17 -0.16 -0.16 -0.15 -0.15 -0.16 -0.16 -0.16 -0.17 -0.17 -0.17 -0.17 -0.17 -0.16 -0.15 -0.14 -0.15 -0.15 -0.16 -0.16 -0.16 -0.16 -0.16 -0.16 -0.17 -0.17 -0.16 
Vetor z = 9.61 9.61 9.60 9.60 9.60 9.61 9.61 9.61 9.60 9.60 9.60 9.60 9.60 9.60 9.60 9.60 9.60 9.61 9.61 9.61 9.60 9.60 9.59 9.59 9.59 9.60 9.61 9.61 9.62 9.62 9.62 9.61 9.61 9.60 9.60 9.61 9.61 9.62 9.62 9.62 9.62 9.62 9.61 9.61 9.60 9.60 9.60 9.61 9.61 9.61 9.62 9.62 9.62 9.61 9.61 9.60 9.60 9.61 9.60 9.60 9.61 9.61 9.61 9.61 9.62 9.62 9.61 9.61 9.60 9.60 9.60 9.61 9.61 9.61 9.62 9.62 9.61 9.61 9.61 9.60 9.60 9.60 9.60 9.61 9.62 9.62 9.62 9.61 9.60 9.60 9.61 9.62 9.62 9.61 9.59 9.58 9.59 9.61 9.63 9.63 
Valores dos vetores:
Vetor x = -0.40 -0.40 -0.40 -0.40 -0.40 -0.40 -0.40 -0.40 -0.40 -0.40 -0.40 -0.39 -0.39 -0.39 -0.40 -0.40 -0.39 -0.39 -0.39 -0.39 -0.40 -0.39 -0.39 -0.40 -0.39 -0.39 -0.39 -0.39 -0.39 -0.39 -0.39 -0.38 -0.39 -0.39 -0.39 -0.39 -0.39 -0.39 -0.39 -0.39 -0.39 -0.39 -0.39 -0.39 -0.39 -0.39 -0.39 -0.39 -0.40 -0.40 -0.40 -0.40 -0.40 -0.40 -0.40 -0.40 -0.40 -0.40 -0.40 -0.40 -0.39 -0.39 -0.39 -0.39 -0.40 -0.40 -0.40 -0.40 -0.40 -0.39 -0.39 -0.39 -0.39 -0.39 -0.39 -0.39 -0.39 -0.39 -0.39 -0.39 -0.39 -0.39 -0.39 -0.38 -0.39 -0.39 -0.39 -0.39 -0.39 -0.39 -0.39 -0.39 -0.39 -0.38 -0.38 -0.38 -0.38 -0.38 -0.38 -0.38 
Vetor y = -0.16 -0.16 -0.16 -0.15 -0.15 -0.15 -0.15 -0.15 -0.15 -0.15 -0.15 -0.15 -0.15 -0.16 -0.16 -0.16 -0.16 -0.16 -0.16 -0.16 -0.16 -0.16 -0.16 -0.16 -0.16 -0.16 -0.16 -0.16 -0.16 -0.16 -0.16 -0.16 -0.17 -0.17 -0.16 -0.17 -0.17 -0.16 -0.16 -0.16 -0.16 -0.16 -0.16 -0.16 -0.17 -0.16 -0.16 -0.16 -0.17 -0.17 -0.17 -0.16 -0.17 -0.17 -0.17 -0.17 -0.17 -0.17 -0.17 -0.17 -0.17 -0.17 -0.17 -0.17 -0.17 -0.17 -0.17 -0.17 -0.17 -0.17 -0.17 -0.17 -0.17 -0.16 -0.16 -0.17 -0.17 -0.17 -0.17 -0.16 -0.16 -0.16 -0.16 -0.16 -0.16 -0.16 -0.16 -0.17 -0.16 -0.16 -0.16 -0.16 -0.16 -0.16 -0.16 -0.16 -0.16 -0.16 -0.16 -0.15 
Vetor z = 9.59 9.59 9.59 9.59 9.59 9.59 9.59 9.59 9.59 9.59 9.59 9.59 9.59 9.59 9.59 9.59 9.60 9.59 9.58 9.58 9.58 9.59 9.59 9.59 9.58 9.59 9.59 9.60 9.60 9.60 9.60 9.60 9.60 9.60 9.60 9.60 9.60 9.60 9.60 9.60 9.60 9.61 9.60 9.60 9.60 9.60 9.60 9.60 9.61 9.61 9.61 9.61 9.61 9.61 9.61 9.61 9.61 9.61 9.62 9.62 9.62 9.62 9.62 9.62 9.62 9.61 9.61 9.61 9.61 9.61 9.61 9.61 9.61 9.61 9.60 9.61 9.61 9.62 9.62 9.61 9.60 9.60 9.60 9.61 9.61 9.61 9.61 9.61 9.61 9.61 9.61 9.61 9.61 9.61 9.61 9.61 9.61 9.61 9.62 9.62 


z=0 y=0 x=1

Valores dos vetores:
Vetor x = -9.53 -9.52 -9.52 -9.52 -9.52 -9.52 -9.52 -9.52 -9.52 -9.52 -9.52 -9.53 -9.53 -9.52 -9.53 -9.53 -9.53 -9.53 -9.53 -9.53 -9.53 -9.53 -9.53 -9.53 -9.53 -9.53 -9.53 -9.53 -9.54 -9.54 -9.53 -9.53 -9.53 -9.54 -9.53 -9.53 -9.54 -9.53 -9.54 -9.54 -9.54 -9.53 -9.54 -9.53 -9.53 -9.53 -9.53 -9.53 -9.53 -9.53 -9.53 -9.53 -9.53 -9.53 -9.53 -9.53 -9.53 -9.53 -9.54 -9.53 -9.53 -9.54 -9.54 -9.53 -9.53 -9.53 -9.53 -9.53 -9.53 -9.53 -9.53 -9.53 -9.53 -9.53 -9.53 -9.53 -9.54 -9.53 -9.53 -9.53 -9.53 -9.53 -9.53 -9.53 -9.53 -9.53 -9.53 -9.53 -9.53 -9.53 -9.53 -9.54 -9.54 -9.54 -9.54 -9.53 -9.54 -9.54 -9.54 -9.54 
Vetor y = 0.55 0.55 0.55 0.55 0.55 0.55 0.55 0.54 0.54 0.54 0.54 0.54 0.55 0.54 0.55 0.54 0.54 0.54 0.54 0.54 0.54 0.54 0.54 0.54 0.54 0.54 0.54 0.54 0.54 0.54 0.54 0.53 0.53 0.53 0.54 0.54 0.54 0.54 0.54 0.54 0.54 0.54 0.54 0.54 0.54 0.54 0.54 0.54 0.54 0.54 0.54 0.54 0.55 0.54 0.54 0.54 0.54 0.54 0.54 0.55 0.55 0.55 0.55 0.55 0.55 0.55 0.55 0.55 0.55 0.55 0.55 0.55 0.55 0.55 0.55 0.55 0.55 0.55 0.55 0.54 0.54 0.54 0.55 0.55 0.55 0.54 0.54 0.54 0.54 0.54 0.54 0.54 0.54 0.54 0.54 0.54 0.54 0.54 0.54 0.54 
Vetor z = -1.11 -1.11 -1.11 -1.10 -1.11 -1.11 -1.11 -1.11 -1.11 -1.11 -1.11 -1.11 -1.11 -1.11 -1.11 -1.11 -1.11 -1.11 -1.11 -1.11 -1.11 -1.11 -1.11 -1.10 -1.10 -1.10 -1.10 -1.10 -1.10 -1.10 -1.10 -1.11 -1.11 -1.11 -1.11 -1.11 -1.11 -1.11 -1.10 -1.10 -1.10 -1.10 -1.10 -1.10 -1.10 -1.10 -1.09 -1.09 -1.10 -1.10 -1.10 -1.10 -1.10 -1.10 -1.10 -1.10 -1.10 -1.10 -1.10 -1.10 -1.10 -1.09 -1.09 -1.09 -1.09 -1.09 -1.09 -1.09 -1.10 -1.10 -1.10 -1.10 -1.10 -1.10 -1.10 -1.10 -1.10 -1.10 -1.11 -1.11 -1.10 -1.10 -1.11 -1.10 -1.10 -1.10 -1.10 -1.10 -1.10 -1.10 -1.10 -1.09 -1.09 -1.09 -1.09 -1.10 -1.10 -1.10 -1.10 -1.11 
Valores dos vetores:
Vetor x = -9.54 -9.54 -9.54 -9.54 -9.54 -9.54 -9.54 -9.54 -9.54 -9.54 -9.54 -9.54 -9.54 -9.54 -9.54 -9.54 -9.54 -9.54 -9.54 -9.55 -9.55 -9.55 -9.55 -9.54 -9.54 -9.54 -9.53 -9.54 -9.54 -9.54 -9.53 -9.53 -9.53 -9.53 -9.53 -9.53 -9.53 -9.53 -9.53 -9.53 -9.54 -9.53 -9.53 -9.53 -9.54 -9.54 -9.53 -9.53 -9.53 -9.53 -9.54 -9.53 -9.53 -9.54 -9.54 -9.54 -9.54 -9.54 -9.54 -9.54 -9.54 -9.54 -9.54 -9.54 -9.54 -9.54 -9.53 -9.53 -9.54 -9.54 -9.54 -9.54 -9.54 -9.53 -9.53 -9.53 -9.53 -9.53 -9.53 -9.53 -9.53 -9.53 -9.53 -9.53 -9.53 -9.53 -9.53 -9.53 -9.53 -9.53 -9.53 -9.53 -9.53 -9.53 -9.53 -9.53 -9.53 -9.53 -9.53 -9.53 
Vetor y = 0.55 0.55 0.55 0.55 0.54 0.54 0.54 0.54 0.54 0.54 0.54 0.54 0.54 0.53 0.53 0.53 0.54 0.54 0.54 0.54 0.54 0.54 0.54 0.54 0.54 0.55 0.55 0.55 0.55 0.55 0.55 0.55 0.55 0.55 0.55 0.54 0.54 0.54 0.54 0.54 0.54 0.54 0.54 0.54 0.54 0.54 0.54 0.54 0.54 0.54 0.54 0.55 0.55 0.54 0.55 0.55 0.55 0.55 0.55 0.55 0.55 0.55 0.55 0.55 0.55 0.55 0.55 0.55 0.56 0.55 0.55 0.55 0.55 0.55 0.55 0.55 0.55 0.54 0.54 0.54 0.54 0.54 0.54 0.54 0.54 0.54 0.54 0.54 0.54 0.54 0.54 0.55 0.55 0.55 0.55 0.55 0.55 0.55 0.55 0.55 
Vetor z = -1.11 -1.11 -1.11 -1.10 -1.11 -1.10 -1.10 -1.10 -1.10 -1.10 -1.11 -1.11 -1.11 -1.11 -1.11 -1.11 -1.10 -1.10 -1.10 -1.10 -1.09 -1.10 -1.10 -1.10 -1.10 -1.10 -1.10 -1.11 -1.11 -1.10 -1.10 -1.10 -1.10 -1.10 -1.10 -1.10 -1.10 -1.11 -1.11 -1.10 -1.10 -1.11 -1.11 -1.11 -1.10 -1.10 -1.10 -1.10 -1.10 -1.09 -1.10 -1.10 -1.11 -1.11 -1.12 -1.12 -1.12 -1.12 -1.11 -1.11 -1.11 -1.11 -1.11 -1.11 -1.11 -1.11 -1.10 -1.11 -1.11 -1.11 -1.11 -1.11 -1.11 -1.12 -1.12 -1.12 -1.12 -1.12 -1.12 -1.12 -1.12 -1.12 -1.12 -1.12 -1.11 -1.11 -1.11 -1.12 -1.11 -1.11 -1.11 -1.11 -1.11 -1.11 -1.10 -1.10 -1.10 -1.09 -1.09 -1.09 
Valores dos vetores:
Vetor x = -9.52 -9.53 -9.53 -9.53 -9.53 -9.53 -9.53 -9.53 -9.53 -9.53 -9.53 -9.53 -9.53 -9.53 -9.53 -9.53 -9.53 -9.52 -9.52 -9.52 -9.52 -9.52 -9.52 -9.52 -9.52 -9.52 -9.52 -9.52 -9.52 -9.51 -9.52 -9.52 -9.52 -9.52 -9.52 -9.53 -9.53 -9.53 -9.52 -9.52 -9.53 -9.53 -9.53 -9.53 -9.53 -9.53 -9.53 -9.53 -9.53 -9.53 -9.53 -9.53 -9.53 -9.53 -9.53 -9.53 -9.53 -9.53 -9.53 -9.53 -9.53 -9.53 -9.53 -9.53 -9.54 -9.54 -9.53 -9.53 -9.53 -9.53 -9.53 -9.53 -9.54 -9.54 -9.54 -9.54 -9.54 -9.54 -9.54 -9.53 -9.53 -9.53 -9.53 -9.53 -9.52 -9.52 -9.52 -9.53 -9.53 -9.53 -9.53 -9.53 -9.53 -9.53 -9.53 -9.53 -9.53 -9.53 -9.53 -9.53 
Vetor y = 0.55 0.55 0.55 0.55 0.55 0.55 0.54 0.54 0.55 0.55 0.55 0.55 0.54 0.54 0.54 0.54 0.54 0.54 0.54 0.54 0.54 0.54 0.54 0.54 0.54 0.55 0.55 0.55 0.55 0.56 0.56 0.55 0.55 0.55 0.55 0.55 0.55 0.55 0.55 0.54 0.55 0.55 0.55 0.55 0.55 0.55 0.55 0.55 0.54 0.54 0.54 0.54 0.54 0.54 0.54 0.54 0.54 0.53 0.53 0.54 0.54 0.54 0.54 0.54 0.54 0.54 0.54 0.54 0.54 0.54 0.54 0.54 0.54 0.54 0.54 0.54 0.53 0.53 0.53 0.53 0.53 0.53 0.54 0.54 0.54 0.54 0.54 0.54 0.54 0.53 0.53 0.53 0.53 0.54 0.54 0.54 0.54 0.54 0.54 0.55 
Vetor z = -1.11 -1.11 -1.11 -1.11 -1.11 -1.11 -1.11 -1.12 -1.12 -1.12 -1.12 -1.12 -1.12 -1.11 -1.11 -1.11 -1.12 -1.13 -1.13 -1.13 -1.13 -1.13 -1.13 -1.13 -1.13 -1.13 -1.13 -1.13 -1.13 -1.13 -1.14 -1.13 -1.13 -1.13 -1.13 -1.12 -1.13 -1.12 -1.12 -1.12 -1.12 -1.12 -1.12 -1.12 -1.12 -1.12 -1.11 -1.12 -1.12 -1.12 -1.12 -1.12 -1.12 -1.12 -1.12 -1.11 -1.11 -1.12 -1.12 -1.12 -1.12 -1.11 -1.11 -1.11 -1.12 -1.12 -1.11 -1.12 -1.12 -1.11 -1.11 -1.11 -1.12 -1.12 -1.13 -1.12 -1.13 -1.13 -1.13 -1.14 -1.14 -1.14 -1.14 -1.14 -1.14 -1.14 -1.14 -1.13 -1.13 -1.14 -1.13 -1.13 -1.12 -1.13 -1.12 -1.12 -1.13 -1.13 -1.13 -1.13 



z=0 y=0 x=-1

Valores dos vetores:
Vetor x = 9.95 9.95 9.95 9.95 9.95 9.95 9.95 9.95 9.95 9.95 9.95 9.95 9.95 9.95 9.95 9.95 9.95 9.95 9.96 9.96 9.96 9.96 9.95 9.96 9.96 9.95 9.95 9.95 9.95 9.95 9.95 9.95 9.95 9.95 9.95 9.95 9.95 9.95 9.95 9.95 9.95 9.94 9.94 9.95 9.95 9.94 9.94 9.94 9.95 9.95 9.95 9.95 9.95 9.95 9.95 9.95 9.95 9.95 9.95 9.96 9.96 9.96 9.95 9.95 9.95 9.95 9.96 9.96 9.95 9.96 9.96 9.95 9.95 9.95 9.96 9.95 9.95 9.95 9.95 9.95 9.95 9.95 9.95 9.95 9.95 9.95 9.95 9.95 9.95 9.95 9.95 9.95 9.95 9.95 9.95 9.95 9.96 9.96 9.95 9.95 
Vetor y = -0.83 -0.83 -0.83 -0.83 -0.83 -0.83 -0.83 -0.83 -0.83 -0.82 -0.82 -0.82 -0.82 -0.82 -0.82 -0.82 -0.82 -0.82 -0.82 -0.81 -0.81 -0.81 -0.81 -0.81 -0.81 -0.81 -0.81 -0.81 -0.81 -0.82 -0.82 -0.81 -0.82 -0.81 -0.82 -0.82 -0.82 -0.83 -0.83 -0.83 -0.83 -0.83 -0.83 -0.83 -0.83 -0.83 -0.83 -0.84 -0.84 -0.84 -0.84 -0.84 -0.83 -0.83 -0.83 -0.83 -0.84 -0.83 -0.83 -0.84 -0.83 -0.83 -0.83 -0.83 -0.83 -0.83 -0.83 -0.83 -0.83 -0.83 -0.83 -0.83 -0.83 -0.83 -0.83 -0.83 -0.83 -0.83 -0.83 -0.83 -0.83 -0.83 -0.83 -0.83 -0.83 -0.83 -0.83 -0.83 -0.83 -0.83 -0.83 -0.83 -0.83 -0.83 -0.83 -0.83 -0.83 -0.82 -0.82 -0.82 
Vetor z = 1.51 1.50 1.50 1.50 1.50 1.50 1.50 1.50 1.50 1.51 1.51 1.51 1.51 1.51 1.51 1.52 1.52 1.53 1.53 1.53 1.53 1.53 1.53 1.53 1.53 1.52 1.52 1.53 1.52 1.52 1.52 1.52 1.52 1.51 1.51 1.51 1.51 1.51 1.52 1.52 1.52 1.52 1.52 1.53 1.53 1.52 1.52 1.52 1.52 1.52 1.52 1.52 1.53 1.53 1.53 1.53 1.52 1.52 1.52 1.52 1.52 1.51 1.51 1.51 1.51 1.50 1.50 1.50 1.50 1.50 1.50 1.50 1.50 1.50 1.50 1.50 1.50 1.50 1.50 1.51 1.50 1.51 1.51 1.52 1.52 1.52 1.52 1.52 1.52 1.51 1.52 1.51 1.51 1.51 1.50 1.50 1.51 1.51 1.51 1.51 
Valores dos vetores:
Vetor x = 9.96 9.96 9.96 9.95 9.95 9.95 9.95 9.95 9.95 9.95 9.95 9.95 9.95 9.95 9.95 9.95 9.95 9.95 9.95 9.95 9.94 9.95 9.95 9.95 9.94 9.94 9.95 9.95 9.95 9.95 9.94 9.94 9.94 9.94 9.94 9.94 9.94 9.94 9.94 9.94 9.94 9.94 9.94 9.94 9.94 9.94 9.94 9.95 9.95 9.95 9.95 9.95 9.95 9.95 9.95 9.95 9.95 9.95 9.95 9.95 9.95 9.95 9.95 9.94 9.94 9.95 9.95 9.96 9.95 9.95 9.95 9.95 9.95 9.95 9.96 9.96 9.96 9.96 9.96 9.96 9.96 9.96 9.95 9.95 9.95 9.95 9.95 9.96 9.96 9.96 9.96 9.96 9.96 9.96 9.96 9.96 9.96 9.96 9.96 9.96 
Vetor y = -0.82 -0.82 -0.83 -0.83 -0.83 -0.83 -0.83 -0.83 -0.83 -0.83 -0.83 -0.83 -0.83 -0.83 -0.83 -0.83 -0.83 -0.83 -0.82 -0.83 -0.83 -0.83 -0.83 -0.83 -0.83 -0.83 -0.83 -0.83 -0.83 -0.83 -0.83 -0.83 -0.83 -0.83 -0.83 -0.83 -0.83 -0.84 -0.84 -0.84 -0.83 -0.83 -0.83 -0.83 -0.83 -0.83 -0.83 -0.83 -0.84 -0.84 -0.84 -0.84 -0.83 -0.83 -0.83 -0.83 -0.83 -0.84 -0.83 -0.84 -0.84 -0.83 -0.83 -0.84 -0.84 -0.83 -0.83 -0.83 -0.83 -0.83 -0.84 -0.84 -0.84 -0.84 -0.84 -0.84 -0.84 -0.84 -0.84 -0.84 -0.84 -0.84 -0.84 -0.84 -0.83 -0.83 -0.83 -0.83 -0.83 -0.83 -0.83 -0.82 -0.82 -0.83 -0.83 -0.83 -0.83 -0.83 -0.83 -0.83 
Vetor z = 1.54 1.54 1.53 1.53 1.53 1.53 1.52 1.52 1.52 1.52 1.52 1.52 1.52 1.52 1.52 1.52 1.52 1.52 1.52 1.52 1.52 1.52 1.52 1.52 1.51 1.51 1.51 1.51 1.51 1.51 1.51 1.51 1.51 1.51 1.51 1.52 1.51 1.51 1.52 1.52 1.52 1.52 1.52 1.52 1.52 1.52 1.52 1.52 1.52 1.53 1.53 1.53 1.53 1.52 1.52 1.52 1.52 1.51 1.51 1.51 1.51 1.51 1.51 1.52 1.52 1.52 1.52 1.52 1.52 1.52 1.52 1.52 1.52 1.52 1.52 1.51 1.51 1.51 1.52 1.52 1.51 1.52 1.52 1.52 1.52 1.52 1.52 1.52 1.52 1.53 1.53 1.53 1.52 1.52 1.52 1.52 1.52 1.51 1.51 1.51 
Valores dos vetores:
Vetor x = 9.96 9.96 9.96 9.95 9.95 9.95 9.95 9.96 9.96 9.96 9.96 9.96 9.95 9.95 9.95 9.95 9.94 9.95 9.95 9.96 9.96 9.95 9.95 9.94 9.94 9.94 9.94 9.94 9.95 9.95 9.95 9.95 9.95 9.95 9.95 9.95 9.95 9.95 9.95 9.95 9.96 9.96 9.95 9.94 9.94 9.95 9.95 9.96 9.96 9.96 9.96 9.95 9.95 9.95 9.95 9.95 9.95 9.95 9.95 9.94 9.94 9.94 9.95 9.95 9.95 9.95 9.95 9.95 9.95 9.95 9.95 9.95 9.95 9.95 9.96 9.96 9.96 9.96 9.96 9.96 9.95 9.95 9.96 9.96 9.96 9.95 9.96 9.96 9.96 9.95 9.95 9.95 9.95 9.95 9.95 9.95 9.96 9.96 9.96 9.95 
Vetor y = -0.84 -0.84 -0.84 -0.84 -0.85 -0.85 -0.85 -0.85 -0.85 -0.85 -0.85 -0.85 -0.85 -0.85 -0.85 -0.85 -0.85 -0.84 -0.84 -0.84 -0.84 -0.84 -0.84 -0.83 -0.83 -0.82 -0.83 -0.83 -0.83 -0.83 -0.83 -0.83 -0.82 -0.82 -0.82 -0.83 -0.83 -0.83 -0.83 -0.83 -0.83 -0.83 -0.83 -0.83 -0.83 -0.83 -0.83 -0.83 -0.84 -0.83 -0.83 -0.84 -0.84 -0.84 -0.84 -0.84 -0.84 -0.84 -0.84 -0.84 -0.84 -0.84 -0.84 -0.84 -0.84 -0.84 -0.83 -0.83 -0.83 -0.83 -0.83 -0.84 -0.84 -0.83 -0.83 -0.83 -0.83 -0.83 -0.83 -0.83 -0.83 -0.83 -0.84 -0.84 -0.83 -0.83 -0.83 -0.83 -0.83 -0.84 -0.84 -0.84 -0.83 -0.83 -0.83 -0.83 -0.83 -0.83 -0.83 -0.83 
Vetor z = 1.51 1.51 1.52 1.53 1.53 1.53 1.53 1.53 1.54 1.54 1.54 1.53 1.53 1.53 1.53 1.53 1.53 1.54 1.53 1.54 1.54 1.53 1.53 1.53 1.53 1.53 1.53 1.53 1.52 1.52 1.52 1.52 1.52 1.52 1.52 1.51 1.51 1.51 1.51 1.51 1.51 1.51 1.50 1.50 1.50 1.50 1.50 1.50 1.50 1.50 1.50 1.50 1.50 1.50 1.49 1.50 1.50 1.50 1.50 1.50 1.50 1.50 1.50 1.51 1.51 1.52 1.52 1.52 1.52 1.52 1.52 1.52 1.52 1.52 1.52 1.51 1.52 1.52 1.51 1.51 1.51 1.51 1.51 1.52 1.52 1.52 1.53 1.53 1.53 1.52 1.52 1.52 1.52 1.52 1.52 1.52 1.52 1.52 1.52 1.52 

z=0 y=1 x=0

Valores dos vetores:
Vetor x = -0.51 -0.51 -0.51 -0.50 -0.50 -0.50 -0.50 -0.50 -0.50 -0.50 -0.50 -0.50 -0.50 -0.50 -0.50 -0.50 -0.50 -0.50 -0.50 -0.50 -0.50 -0.50 -0.50 -0.50 -0.50 -0.50 -0.50 -0.50 -0.50 -0.50 -0.50 -0.50 -0.50 -0.50 -0.50 -0.50 -0.50 -0.50 -0.50 -0.50 -0.50 -0.50 -0.50 -0.50 -0.50 -0.49 -0.50 -0.50 -0.50 -0.50 -0.50 -0.50 -0.50 -0.50 -0.50 -0.49 -0.49 -0.50 -0.50 -0.50 -0.50 -0.50 -0.50 -0.50 -0.50 -0.50 -0.50 -0.49 -0.49 -0.50 -0.50 -0.50 -0.49 -0.49 -0.50 -0.50 -0.50 -0.50 -0.50 -0.50 -0.50 -0.50 -0.50 -0.50 -0.50 -0.50 -0.50 -0.50 -0.51 -0.51 -0.51 -0.51 -0.51 -0.51 -0.51 -0.51 -0.51 -0.51 -0.51 -0.51 
Vetor y = -9.91 -9.91 -9.91 -9.91 -9.91 -9.91 -9.91 -9.91 -9.91 -9.91 -9.91 -9.91 -9.91 -9.91 -9.91 -9.91 -9.91 -9.91 -9.91 -9.91 -9.91 -9.91 -9.91 -9.91 -9.91 -9.90 -9.90 -9.91 -9.91 -9.91 -9.91 -9.91 -9.90 -9.90 -9.90 -9.90 -9.90 -9.91 -9.91 -9.91 -9.91 -9.91 -9.90 -9.90 -9.90 -9.90 -9.90 -9.90 -9.90 -9.90 -9.90 -9.90 -9.90 -9.90 -9.90 -9.91 -9.90 -9.90 -9.90 -9.90 -9.90 -9.91 -9.91 -9.91 -9.91 -9.91 -9.91 -9.91 -9.91 -9.91 -9.91 -9.92 -9.91 -9.91 -9.91 -9.91 -9.91 -9.91 -9.91 -9.92 -9.92 -9.92 -9.91 -9.92 -9.92 -9.92 -9.92 -9.91 -9.91 -9.91 -9.91 -9.91 -9.91 -9.91 -9.91 -9.91 -9.91 -9.91 -9.92 -9.92 
Vetor z = 0.20 0.19 0.19 0.19 0.20 0.20 0.20 0.20 0.20 0.20 0.19 0.19 0.19 0.20 0.19 0.19 0.19 0.19 0.19 0.19 0.19 0.19 0.19 0.19 0.19 0.19 0.20 0.19 0.20 0.20 0.20 0.20 0.20 0.20 0.19 0.19 0.19 0.19 0.19 0.19 0.19 0.19 0.19 0.19 0.19 0.19 0.19 0.19 0.19 0.19 0.18 0.18 0.18 0.19 0.18 0.18 0.18 0.18 0.18 0.18 0.19 0.19 0.19 0.19 0.19 0.19 0.18 0.19 0.19 0.19 0.19 0.19 0.19 0.19 0.20 0.19 0.19 0.19 0.19 0.19 0.20 0.19 0.20 0.20 0.20 0.19 0.19 0.19 0.19 0.19 0.18 0.18 0.18 0.19 0.19 0.19 0.19 0.19 0.19 0.19 
Valores dos vetores:
Vetor x = -0.51 -0.51 -0.50 -0.50 -0.50 -0.49 -0.50 -0.49 -0.49 -0.49 -0.49 -0.49 -0.49 -0.49 -0.49 -0.49 -0.49 -0.49 -0.49 -0.49 -0.49 -0.50 -0.50 -0.50 -0.50 -0.50 -0.50 -0.50 -0.50 -0.50 -0.50 -0.50 -0.51 -0.51 -0.51 -0.51 -0.50 -0.50 -0.50 -0.50 -0.50 -0.50 -0.50 -0.50 -0.50 -0.50 -0.50 -0.50 -0.50 -0.50 -0.50 -0.50 -0.50 -0.50 -0.50 -0.50 -0.50 -0.50 -0.50 -0.50 -0.50 -0.50 -0.50 -0.50 -0.50 -0.50 -0.50 -0.50 -0.49 -0.49 -0.50 -0.50 -0.50 -0.49 -0.49 -0.49 -0.49 -0.49 -0.49 -0.49 -0.49 -0.49 -0.50 -0.49 -0.50 -0.50 -0.50 -0.50 -0.50 -0.50 -0.50 -0.50 -0.51 -0.51 -0.51 -0.51 -0.51 -0.51 -0.51 -0.50 
Vetor y = -9.92 -9.92 -9.92 -9.92 -9.91 -9.91 -9.91 -9.91 -9.91 -9.91 -9.91 -9.92 -9.92 -9.92 -9.92 -9.92 -9.92 -9.92 -9.92 -9.92 -9.92 -9.91 -9.91 -9.91 -9.91 -9.92 -9.92 -9.92 -9.91 -9.91 -9.91 -9.91 -9.91 -9.91 -9.91 -9.91 -9.91 -9.91 -9.91 -9.91 -9.91 -9.91 -9.91 -9.91 -9.91 -9.91 -9.91 -9.91 -9.91 -9.91 -9.91 -9.91 -9.92 -9.92 -9.92 -9.92 -9.92 -9.92 -9.92 -9.92 -9.92 -9.93 -9.92 -9.92 -9.92 -9.92 -9.92 -9.92 -9.93 -9.92 -9.92 -9.92 -9.92 -9.92 -9.92 -9.92 -9.92 -9.92 -9.92 -9.92 -9.91 -9.91 -9.91 -9.91 -9.90 -9.90 -9.90 -9.90 -9.90 -9.90 -9.90 -9.90 -9.91 -9.91 -9.91 -9.91 -9.91 -9.91 -9.91 -9.92 
Vetor z = 0.18 0.18 0.18 0.17 0.17 0.17 0.17 0.17 0.17 0.17 0.17 0.17 0.17 0.17 0.17 0.17 0.17 0.17 0.17 0.17 0.18 0.18 0.18 0.18 0.18 0.18 0.18 0.18 0.18 0.18 0.18 0.18 0.18 0.18 0.18 0.18 0.17 0.17 0.17 0.17 0.17 0.17 0.17 0.18 0.18 0.18 0.18 0.18 0.19 0.19 0.20 0.20 0.19 0.19 0.18 0.18 0.18 0.18 0.19 0.19 0.19 0.19 0.20 0.20 0.19 0.19 0.19 0.19 0.19 0.19 0.19 0.19 0.19 0.19 0.19 0.19 0.19 0.19 0.18 0.19 0.19 0.19 0.19 0.19 0.19 0.19 0.19 0.18 0.18 0.18 0.18 0.17 0.17 0.17 0.17 0.17 0.18 0.18 0.18 0.18 
Valores dos vetores:
Vetor x = -0.51 -0.51 -0.50 -0.50 -0.50 -0.50 -0.50 -0.50 -0.50 -0.50 -0.49 -0.50 -0.50 -0.50 -0.49 -0.49 -0.49 -0.49 -0.49 -0.50 -0.50 -0.50 -0.50 -0.50 -0.50 -0.50 -0.50 -0.50 -0.50 -0.50 -0.50 -0.50 -0.50 -0.50 -0.50 -0.50 -0.50 -0.50 -0.50 -0.50 -0.50 -0.50 -0.50 -0.50 -0.50 -0.50 -0.50 -0.50 -0.50 -0.51 -0.51 -0.51 -0.51 -0.51 -0.51 -0.51 -0.51 -0.51 -0.51 -0.50 -0.50 -0.50 -0.50 -0.50 -0.50 -0.50 -0.50 -0.50 -0.50 -0.49 -0.49 -0.49 -0.49 -0.49 -0.49 -0.49 -0.49 -0.49 -0.49 -0.49 -0.49 -0.49 -0.49 -0.49 -0.49 -0.49 -0.49 -0.49 -0.49 -0.49 -0.49 -0.49 -0.50 -0.50 -0.50 -0.49 -0.49 -0.50 -0.49 -0.50 
Vetor y = -9.91 -9.91 -9.91 -9.91 -9.91 -9.91 -9.91 -9.91 -9.91 -9.91 -9.91 -9.90 -9.90 -9.91 -9.91 -9.91 -9.91 -9.91 -9.91 -9.91 -9.91 -9.91 -9.91 -9.91 -9.91 -9.91 -9.91 -9.91 -9.91 -9.91 -9.91 -9.92 -9.92 -9.92 -9.92 -9.92 -9.92 -9.92 -9.92 -9.92 -9.92 -9.92 -9.92 -9.92 -9.92 -9.92 -9.92 -9.92 -9.92 -9.92 -9.92 -9.92 -9.92 -9.92 -9.92 -9.92 -9.92 -9.92 -9.92 -9.92 -9.92 -9.91 -9.91 -9.91 -9.91 -9.91 -9.91 -9.91 -9.91 -9.91 -9.91 -9.91 -9.91 -9.91 -9.91 -9.91 -9.91 -9.91 -9.91 -9.91 -9.91 -9.91 -9.92 -9.91 -9.91 -9.91 -9.91 -9.91 -9.91 -9.91 -9.91 -9.91 -9.91 -9.91 -9.91 -9.91 -9.92 -9.91 -9.91 -9.91 
Vetor z = 0.19 0.19 0.19 0.19 0.20 0.20 0.20 0.20 0.20 0.21 0.21 0.21 0.20 0.20 0.20 0.20 0.20 0.21 0.20 0.19 0.19 0.18 0.18 0.18 0.17 0.18 0.18 0.17 0.17 0.17 0.18 0.17 0.17 0.17 0.17 0.17 0.17 0.18 0.18 0.18 0.17 0.17 0.17 0.17 0.18 0.18 0.18 0.18 0.19 0.19 0.19 0.19 0.19 0.19 0.19 0.19 0.19 0.18 0.19 0.18 0.19 0.19 0.19 0.20 0.19 0.19 0.19 0.19 0.19 0.18 0.18 0.19 0.19 0.18 0.18 0.18 0.18 0.18 0.18 0.18 0.18 0.18 0.18 0.17 0.17 0.17 0.17 0.17 0.17 0.17 0.17 0.17 0.17 0.17 0.17 0.17 0.17 0.17 0.17 0.18 


z=0 y=-1 x=0

Valores dos vetores:
Vetor x = 1.12 1.12 1.12 1.12 1.12 1.12 1.12 1.13 1.13 1.13 1.13 1.13 1.13 1.13 1.13 1.13 1.13 1.13 1.13 1.13 1.14 1.14 1.13 1.13 1.13 1.13 1.13 1.13 1.13 1.13 1.13 1.13 1.12 1.12 1.12 1.12 1.13 1.12 1.12 1.12 1.12 1.12 1.12 1.13 1.13 1.13 1.13 1.13 1.13 1.13 1.13 1.13 1.13 1.13 1.13 1.13 1.13 1.13 1.13 1.13 1.13 1.13 1.13 1.13 1.13 1.13 1.13 1.12 1.12 1.12 1.12 1.12 1.12 1.12 1.13 1.13 1.13 1.13 1.13 1.13 1.13 1.13 1.13 1.13 1.13 1.13 1.13 1.13 1.13 1.12 1.12 1.13 1.13 1.13 1.13 1.13 1.13 1.13 1.13 1.13 
Vetor y = 9.67 9.67 9.67 9.67 9.67 9.67 9.67 9.67 9.67 9.67 9.67 9.67 9.67 9.67 9.67 9.67 9.67 9.67 9.67 9.67 9.67 9.67 9.67 9.67 9.67 9.67 9.67 9.66 9.67 9.67 9.67 9.67 9.67 9.66 9.67 9.66 9.67 9.67 9.67 9.67 9.67 9.67 9.67 9.67 9.67 9.67 9.67 9.67 9.66 9.66 9.66 9.67 9.67 9.67 9.67 9.67 9.67 9.67 9.67 9.67 9.67 9.67 9.67 9.67 9.67 9.67 9.67 9.67 9.67 9.67 9.67 9.67 9.67 9.67 9.67 9.67 9.67 9.67 9.67 9.67 9.67 9.67 9.67 9.67 9.67 9.67 9.67 9.67 9.67 9.67 9.67 9.67 9.67 9.67 9.67 9.67 9.67 9.67 9.67 9.68 
Vetor z = -0.32 -0.32 -0.32 -0.32 -0.32 -0.32 -0.32 -0.32 -0.32 -0.32 -0.33 -0.32 -0.32 -0.32 -0.33 -0.33 -0.33 -0.33 -0.33 -0.33 -0.34 -0.34 -0.34 -0.34 -0.34 -0.34 -0.34 -0.34 -0.34 -0.34 -0.34 -0.34 -0.34 -0.34 -0.34 -0.34 -0.34 -0.33 -0.33 -0.34 -0.34 -0.34 -0.34 -0.33 -0.34 -0.34 -0.34 -0.33 -0.33 -0.33 -0.34 -0.34 -0.34 -0.34 -0.34 -0.34 -0.33 -0.33 -0.33 -0.33 -0.34 -0.34 -0.34 -0.33 -0.33 -0.33 -0.33 -0.33 -0.33 -0.33 -0.34 -0.33 -0.34 -0.34 -0.33 -0.33 -0.33 -0.33 -0.34 -0.34 -0.34 -0.34 -0.34 -0.34 -0.34 -0.34 -0.34 -0.34 -0.34 -0.34 -0.34 -0.34 -0.34 -0.34 -0.34 -0.34 -0.34 -0.35 -0.34 -0.34 
Valores dos vetores:
Vetor x = 1.12 1.12 1.12 1.12 1.11 1.11 1.11 1.11 1.12 1.12 1.11 1.12 1.12 1.12 1.12 1.12 1.12 1.12 1.12 1.12 1.12 1.12 1.11 1.12 1.12 1.12 1.12 1.12 1.12 1.13 1.13 1.13 1.13 1.13 1.13 1.13 1.13 1.13 1.13 1.13 1.13 1.13 1.13 1.13 1.13 1.13 1.13 1.13 1.13 1.13 1.13 1.13 1.13 1.13 1.13 1.13 1.13 1.13 1.13 1.13 1.13 1.13 1.13 1.13 1.12 1.12 1.12 1.12 1.12 1.12 1.12 1.12 1.12 1.12 1.12 1.12 1.12 1.12 1.12 1.13 1.13 1.12 1.12 1.12 1.12 1.13 1.13 1.13 1.13 1.13 1.13 1.13 1.13 1.13 1.13 1.12 1.11 1.10 1.10 1.11 
Vetor y = 9.67 9.67 9.68 9.68 9.68 9.67 9.68 9.68 9.68 9.68 9.67 9.67 9.67 9.67 9.67 9.67 9.67 9.68 9.68 9.68 9.68 9.68 9.67 9.67 9.67 9.67 9.67 9.68 9.68 9.67 9.67 9.67 9.67 9.67 9.67 9.67 9.67 9.67 9.67 9.67 9.67 9.67 9.67 9.67 9.67 9.67 9.67 9.67 9.67 9.67 9.67 9.67 9.67 9.67 9.67 9.67 9.67 9.67 9.67 9.67 9.67 9.67 9.67 9.67 9.67 9.67 9.67 9.67 9.67 9.67 9.67 9.67 9.67 9.67 9.67 9.67 9.67 9.67 9.67 9.67 9.67 9.67 9.67 9.67 9.67 9.67 9.67 9.67 9.67 9.67 9.67 9.67 9.68 9.68 9.68 9.67 9.67 9.65 9.66 9.67 
Vetor z = -0.33 -0.33 -0.33 -0.33 -0.33 -0.33 -0.34 -0.34 -0.34 -0.34 -0.33 -0.33 -0.33 -0.33 -0.33 -0.33 -0.33 -0.33 -0.33 -0.33 -0.34 -0.34 -0.34 -0.34 -0.34 -0.34 -0.34 -0.34 -0.34 -0.34 -0.34 -0.33 -0.33 -0.33 -0.33 -0.33 -0.33 -0.33 -0.33 -0.33 -0.33 -0.33 -0.33 -0.33 -0.32 -0.33 -0.33 -0.34 -0.34 -0.34 -0.34 -0.34 -0.34 -0.34 -0.33 -0.33 -0.33 -0.34 -0.34 -0.35 -0.35 -0.34 -0.34 -0.34 -0.34 -0.34 -0.34 -0.34 -0.34 -0.34 -0.34 -0.34 -0.34 -0.35 -0.35 -0.35 -0.35 -0.35 -0.34 -0.34 -0.34 -0.34 -0.34 -0.34 -0.35 -0.35 -0.35 -0.35 -0.35 -0.35 -0.34 -0.34 -0.33 -0.32 -0.32 -0.33 -0.33 -0.33 -0.33 -0.33 
Valores dos vetores:
Vetor x = 1.13 1.13 1.13 1.13 1.13 1.13 1.13 1.13 1.13 1.13 1.13 1.13 1.13 1.13 1.13 1.13 1.13 1.13 1.14 1.14 1.14 1.15 1.14 1.14 1.15 1.15 1.15 1.15 1.15 1.15 1.15 1.14 1.14 1.14 1.14 1.14 1.14 1.14 1.14 1.14 1.14 1.13 1.13 1.13 1.13 1.13 1.13 1.12 1.12 1.12 1.12 1.12 1.12 1.12 1.12 1.12 1.12 1.11 1.11 1.11 1.11 1.11 1.12 1.12 1.12 1.11 1.12 1.12 1.12 1.11 1.12 1.12 1.12 1.12 1.12 1.12 1.12 1.12 1.13 1.13 1.13 1.13 1.13 1.13 1.13 1.13 1.13 1.13 1.14 1.14 1.14 1.14 1.14 1.14 1.14 1.14 1.14 1.14 1.14 1.13 
Vetor y = 9.67 9.68 9.68 9.68 9.68 9.68 9.68 9.68 9.67 9.67 9.67 9.67 9.67 9.67 9.67 9.67 9.67 9.67 9.67 9.67 9.67 9.67 9.67 9.67 9.67 9.67 9.67 9.67 9.67 9.67 9.67 9.67 9.67 9.67 9.68 9.68 9.68 9.67 9.67 9.67 9.67 9.67 9.67 9.67 9.67 9.67 9.67 9.67 9.67 9.67 9.67 9.66 9.66 9.66 9.66 9.67 9.67 9.67 9.67 9.67 9.66 9.67 9.66 9.66 9.66 9.66 9.66 9.66 9.66 9.66 9.67 9.67 9.66 9.67 9.67 9.67 9.67 9.66 9.66 9.66 9.66 9.66 9.66 9.67 9.67 9.67 9.67 9.67 9.67 9.67 9.67 9.66 9.66 9.66 9.66 9.66 9.66 9.66 9.66 9.67 
Vetor z = -0.35 -0.35 -0.35 -0.35 -0.35 -0.35 -0.35 -0.35 -0.34 -0.34 -0.34 -0.33 -0.33 -0.34 -0.34 -0.34 -0.34 -0.35 -0.35 -0.35 -0.35 -0.34 -0.34 -0.34 -0.34 -0.34 -0.33 -0.32 -0.32 -0.32 -0.33 -0.33 -0.33 -0.33 -0.33 -0.34 -0.34 -0.34 -0.34 -0.34 -0.34 -0.34 -0.34 -0.34 -0.34 -0.34 -0.33 -0.33 -0.33 -0.33 -0.34 -0.33 -0.34 -0.34 -0.34 -0.34 -0.34 -0.34 -0.34 -0.34 -0.33 -0.33 -0.34 -0.34 -0.34 -0.34 -0.34 -0.34 -0.34 -0.34 -0.34 -0.34 -0.34 -0.34 -0.34 -0.33 -0.33 -0.33 -0.33 -0.33 -0.33 -0.33 -0.33 -0.33 -0.33 -0.33 -0.33 -0.34 -0.34 -0.34 -0.34 -0.34 -0.34 -0.34 -0.34 -0.34 -0.34 -0.34 -0.34 -0.33 
